<svg width="495" height="463" viewBox="0 0 495 463" fill="none" xmlns="http://www.w3.org/2000/svg">
<path fill-rule="evenodd" clip-rule="evenodd" d="M147.491 255.532C119.941 259.598 90.8762 254.743 64.8862 239.738C3.66475 204.391 -17.3113 126.108 18.035 64.8863C53.3812 3.66484 131.665 -17.3112 192.886 18.035C218.53 32.8405 237.113 55.1794 247.453 80.6424C257.793 55.1794 276.375 32.8405 302.019 18.035C363.241 -17.3112 441.524 3.66485 476.871 64.8863C512.217 126.108 491.241 204.391 430.019 239.738C404.384 254.538 375.756 259.464 348.542 255.693C365.71 277.477 375.953 304.971 375.953 334.859C375.953 405.551 318.645 462.859 247.953 462.859C177.26 462.859 119.953 405.551 119.953 334.859C119.953 304.898 130.247 277.341 147.491 255.532ZM229.375 208.197C231.727 205.21 233.964 202.094 236.075 198.854L219.591 189.338C187.998 236.842 124.484 252.207 74.3862 223.283C22.2523 193.184 4.38994 126.52 34.4895 74.3863C64.589 22.2524 131.252 4.39 183.386 34.4895C232.896 63.0738 251.497 124.633 227.466 175.409L243.968 184.936C245.223 182.366 246.384 179.771 247.453 177.155C248.77 180.38 250.229 183.575 251.831 186.73L268.314 177.214C242.971 126.1 261.422 63.4133 311.519 34.4895C363.653 4.39 430.317 22.2524 460.416 74.3863C490.516 126.52 472.653 193.184 420.519 223.283C371.01 251.867 308.397 237.197 276.44 190.997L259.938 200.525C261.681 203.112 263.506 205.617 265.406 208.039C261.963 207.569 258.477 207.237 254.953 207.047V226.08C311.89 229.689 356.953 277.011 356.953 334.859C356.953 395.058 308.152 443.859 247.953 443.859C187.754 443.859 138.953 395.058 138.953 334.859C138.953 277.69 182.964 230.801 238.953 226.225V207.17C235.726 207.394 232.532 207.738 229.375 208.197Z" fill="#111111"/>
</svg>
