<svg width="652" height="155" viewBox="0 0 652 155" fill="none" xmlns="http://www.w3.org/2000/svg">
<path fill-rule="evenodd" clip-rule="evenodd" d="M49.8678 85.8814C40.6847 87.2366 30.9965 85.6183 22.3332 80.6165C1.92614 68.8346 -5.06582 42.7402 6.71618 22.3332C18.4982 1.92616 44.5925 -5.0658 64.9996 6.71619C73.5475 11.6513 79.7417 19.0976 83.1883 27.5852C86.635 19.0976 92.8292 11.6513 101.377 6.7162C121.784 -5.0658 147.878 1.92616 159.66 22.3332C171.442 42.7402 164.451 68.8346 144.043 80.6166C135.498 85.5501 125.956 87.1919 116.885 85.9352C122.607 93.1962 126.021 102.361 126.021 112.323C126.021 135.887 106.919 154.99 83.355 154.99C59.791 154.99 40.6886 135.887 40.6886 112.323C40.6886 102.336 44.1199 93.1509 49.8678 85.8814ZM77.1625 70.1031C77.9464 69.1073 78.6919 68.0689 79.3956 66.9889L73.9013 63.8168C63.3701 79.6515 42.1989 84.773 25.4998 75.1318C8.12196 65.0986 2.16787 42.8777 12.201 25.4998C22.2341 8.12197 44.4551 2.16788 61.8329 12.201C78.336 21.729 84.5364 42.2487 76.526 59.1738L82.0266 62.3496C82.445 61.4927 82.8321 60.6278 83.1883 59.756C83.6275 60.831 84.1138 61.8957 84.6477 62.9475L90.142 59.7754C81.6943 42.7377 87.8447 21.8422 104.544 12.201C121.922 2.16789 144.143 8.12198 154.176 25.4998C164.209 42.8777 158.255 65.0987 140.877 75.1318C124.374 84.6598 103.503 79.7697 92.8506 64.37L87.35 67.5457C87.9311 68.4081 88.5393 69.2432 89.1726 70.0503C88.0251 69.8939 86.863 69.783 85.6883 69.7197V76.064C104.667 77.2669 119.688 93.041 119.688 112.323C119.688 132.39 103.421 148.657 83.355 148.657C63.2888 148.657 47.0219 132.39 47.0219 112.323C47.0219 93.2674 61.6922 77.6377 80.355 76.1124V69.7609C79.2794 69.8356 78.2147 69.9501 77.1625 70.1031Z" fill="white"/>
<path d="M227.752 122.824C228.072 123.464 228.232 123.976 228.232 124.36C228.232 125 227.976 125.544 227.464 125.992C226.952 126.44 226.344 126.664 225.64 126.664C224.296 126.664 223.176 125.96 222.28 124.552L216.808 115.624C214.376 111.72 210.536 109.768 205.288 109.768C199.208 109.768 193.896 108.392 189.352 105.64C184.808 102.824 181.288 98.824 178.792 93.64C176.36 88.392 175.144 82.248 175.144 75.208C175.144 68.104 176.36 61.96 178.792 56.776C181.224 51.528 184.712 47.528 189.256 44.776C193.8 41.96 199.144 40.552 205.288 40.552C211.496 40.552 216.872 41.96 221.416 44.776C225.96 47.528 229.448 51.496 231.88 56.68C234.312 61.864 235.528 68.008 235.528 75.112C235.528 83.496 233.8 90.6 230.344 96.424C226.888 102.184 222.056 106.088 215.848 108.136C217.192 108.584 218.408 109.352 219.496 110.44C220.584 111.528 221.704 113.032 222.856 114.952L227.752 122.824ZM181.288 75.112C181.288 84.392 183.368 91.624 187.528 96.808C191.752 101.928 197.672 104.488 205.288 104.488C212.904 104.488 218.824 101.928 223.048 96.808C227.272 91.688 229.384 84.456 229.384 75.112C229.384 65.768 227.272 58.568 223.048 53.512C218.888 48.392 212.968 45.832 205.288 45.832C197.672 45.832 191.752 48.392 187.528 53.512C183.368 58.632 181.288 65.832 181.288 75.112ZM284.088 61.48C284.984 61.48 285.688 61.768 286.2 62.344C286.776 62.856 287.064 63.56 287.064 64.456V106.504C287.064 107.4 286.776 108.136 286.2 108.712C285.688 109.224 284.984 109.48 284.088 109.48C283.256 109.48 282.584 109.224 282.072 108.712C281.56 108.136 281.304 107.4 281.304 106.504V100.648C279.832 103.592 277.72 105.832 274.968 107.368C272.28 108.904 269.208 109.672 265.752 109.672C260.248 109.672 256.088 108.168 253.272 105.16C250.52 102.088 249.144 97.576 249.144 91.624V64.456C249.144 63.56 249.4 62.856 249.912 62.344C250.488 61.768 251.224 61.48 252.12 61.48C253.016 61.48 253.72 61.768 254.232 62.344C254.744 62.856 255 63.56 255 64.456V91.24C255 95.784 255.896 99.144 257.688 101.32C259.544 103.432 262.424 104.488 266.328 104.488C270.808 104.488 274.392 103.08 277.08 100.264C279.832 97.384 281.208 93.576 281.208 88.84V64.456C281.208 63.56 281.464 62.856 281.976 62.344C282.488 61.768 283.192 61.48 284.088 61.48ZM320.831 61.288C326.463 61.288 330.655 62.76 333.407 65.704C336.223 68.648 337.631 73.096 337.631 79.048V106.408C337.631 107.304 337.375 108.04 336.863 108.616C336.351 109.128 335.647 109.384 334.751 109.384C333.855 109.384 333.151 109.128 332.639 108.616C332.127 108.04 331.871 107.304 331.871 106.408V100.648C330.527 103.528 328.575 105.768 326.015 107.368C323.455 108.904 320.511 109.672 317.183 109.672C314.175 109.672 311.423 109.064 308.927 107.848C306.431 106.632 304.447 104.936 302.975 102.76C301.567 100.584 300.863 98.184 300.863 95.56C300.863 92.104 301.759 89.416 303.551 87.496C305.343 85.576 308.319 84.2 312.479 83.368C316.639 82.536 322.431 82.12 329.855 82.12H331.871V78.568C331.871 74.344 331.007 71.272 329.279 69.352C327.551 67.368 324.831 66.376 321.119 66.376C316.383 66.376 311.871 67.624 307.583 70.12C307.391 70.248 306.879 70.6 306.047 71.176C305.279 71.688 304.607 71.944 304.031 71.944C303.391 71.944 302.847 71.72 302.399 71.272C302.015 70.76 301.823 70.152 301.823 69.448C301.823 68.04 302.943 66.664 305.183 65.32C307.423 64.04 309.919 63.048 312.671 62.344C315.423 61.64 318.143 61.288 320.831 61.288ZM317.663 104.584C321.823 104.584 325.215 103.176 327.839 100.36C330.527 97.544 331.871 93.96 331.871 89.608V86.44H330.047C323.903 86.44 319.199 86.696 315.935 87.208C312.671 87.72 310.367 88.616 309.023 89.896C307.679 91.112 307.007 92.904 307.007 95.272C307.007 97.96 308.031 100.2 310.079 101.992C312.127 103.72 314.655 104.584 317.663 104.584ZM374.626 61.48C375.842 61.416 376.706 61.576 377.218 61.96C377.73 62.344 377.986 62.984 377.986 63.88C377.986 65.48 377.026 66.376 375.106 66.568L372.226 66.856C367.682 67.304 364.29 68.936 362.05 71.752C359.874 74.568 358.786 77.864 358.786 81.64V106.504C358.786 107.464 358.53 108.2 358.018 108.712C357.506 109.224 356.802 109.48 355.906 109.48C355.01 109.48 354.274 109.224 353.698 108.712C353.186 108.2 352.93 107.464 352.93 106.504V64.456C352.93 63.496 353.186 62.76 353.698 62.248C354.274 61.736 355.01 61.48 355.906 61.48C356.738 61.48 357.41 61.736 357.922 62.248C358.434 62.76 358.69 63.464 358.69 64.36V70.6C361.314 65.096 366.178 62.088 373.282 61.576L374.626 61.48ZM420.789 104.392C421.621 105.16 422.037 105.96 422.037 106.792C422.037 107.496 421.781 108.136 421.269 108.712C420.757 109.224 420.149 109.48 419.445 109.48C418.805 109.48 418.133 109.192 417.429 108.616L391.317 86.344V106.504C391.317 107.464 391.029 108.2 390.453 108.712C389.941 109.224 389.269 109.48 388.437 109.48C387.541 109.48 386.805 109.224 386.229 108.712C385.717 108.2 385.461 107.464 385.461 106.504V43.816C385.461 42.856 385.717 42.12 386.229 41.608C386.805 41.096 387.541 40.84 388.437 40.84C389.269 40.84 389.941 41.096 390.453 41.608C391.029 42.12 391.317 42.856 391.317 43.816V83.944L415.221 62.44C415.925 61.864 416.597 61.576 417.237 61.576C418.005 61.576 418.645 61.864 419.157 62.44C419.733 62.952 420.021 63.592 420.021 64.36C420.021 65.32 419.637 66.088 418.869 66.664L398.133 85L420.789 104.392ZM446.096 109.672C443.408 109.672 440.752 109.32 438.128 108.616C435.568 107.848 433.296 106.824 431.312 105.544C430.096 104.712 429.232 104.008 428.72 103.432C428.272 102.792 428.048 102.088 428.048 101.32C428.048 100.68 428.24 100.136 428.624 99.688C429.072 99.24 429.584 99.016 430.16 99.016C430.736 99.016 431.728 99.496 433.136 100.456C434.992 101.672 436.88 102.664 438.8 103.432C440.784 104.2 443.248 104.584 446.192 104.584C449.968 104.584 452.912 103.912 455.024 102.568C457.136 101.16 458.192 99.176 458.192 96.616C458.192 95.08 457.808 93.832 457.04 92.872C456.272 91.848 454.992 90.984 453.2 90.28C451.408 89.512 448.848 88.776 445.52 88.072C439.824 86.792 435.76 85.16 433.328 83.176C430.96 81.128 429.776 78.408 429.776 75.016C429.776 70.92 431.376 67.624 434.576 65.128C437.776 62.568 441.936 61.288 447.056 61.288C449.552 61.288 451.92 61.608 454.16 62.248C456.464 62.888 458.448 63.816 460.112 65.032C462.352 66.568 463.472 68.072 463.472 69.544C463.472 70.184 463.248 70.76 462.8 71.272C462.416 71.72 461.936 71.944 461.36 71.944C460.72 71.944 459.728 71.432 458.384 70.408C456.656 69.192 454.928 68.232 453.2 67.528C451.536 66.76 449.392 66.376 446.768 66.376C443.44 66.376 440.784 67.144 438.8 68.68C436.816 70.152 435.824 72.168 435.824 74.728C435.824 76.2 436.144 77.416 436.784 78.376C437.488 79.336 438.64 80.2 440.24 80.968C441.904 81.672 444.272 82.376 447.344 83.08C451.76 84.104 455.152 85.192 457.52 86.344C459.888 87.496 461.584 88.872 462.608 90.472C463.632 92.072 464.144 94.12 464.144 96.616C464.144 100.52 462.48 103.688 459.152 106.12C455.888 108.488 451.536 109.672 446.096 109.672ZM479.844 109.48C478.948 109.48 478.212 109.224 477.636 108.712C477.124 108.2 476.868 107.464 476.868 106.504V64.456C476.868 63.496 477.124 62.76 477.636 62.248C478.212 61.736 478.948 61.48 479.844 61.48C480.74 61.48 481.444 61.736 481.956 62.248C482.468 62.76 482.724 63.496 482.724 64.456V106.504C482.724 107.464 482.468 108.2 481.956 108.712C481.444 109.224 480.74 109.48 479.844 109.48ZM479.844 50.632C478.564 50.632 477.508 50.248 476.676 49.48C475.908 48.712 475.523 47.72 475.523 46.504C475.523 45.224 475.908 44.2 476.676 43.432C477.508 42.664 478.564 42.28 479.844 42.28C481.124 42.28 482.148 42.664 482.916 43.432C483.748 44.2 484.164 45.224 484.164 46.504C484.164 47.72 483.748 48.712 482.916 49.48C482.148 50.248 481.124 50.632 479.844 50.632ZM501.125 109.48C500.229 109.48 499.493 109.224 498.917 108.712C498.405 108.2 498.149 107.464 498.149 106.504V43.816C498.149 42.856 498.405 42.12 498.917 41.608C499.493 41.096 500.229 40.84 501.125 40.84C501.957 40.84 502.629 41.096 503.141 41.608C503.717 42.12 504.005 42.856 504.005 43.816V106.504C504.005 107.464 503.717 108.2 503.141 108.712C502.629 109.224 501.957 109.48 501.125 109.48ZM553.606 63.208C554.118 62.056 554.95 61.48 556.102 61.48C556.806 61.48 557.446 61.736 558.022 62.248C558.598 62.76 558.886 63.368 558.886 64.072C558.886 64.52 558.79 64.936 558.598 65.32L539.59 107.08C539.27 107.784 538.79 108.328 538.15 108.712C537.574 109.096 536.934 109.288 536.23 109.288C535.462 109.288 534.758 109.096 534.118 108.712C533.542 108.328 533.094 107.784 532.774 107.08L513.67 65.32C513.478 64.936 513.382 64.552 513.382 64.168C513.382 63.4 513.702 62.76 514.342 62.248C515.046 61.672 515.782 61.384 516.55 61.384C517.766 61.384 518.598 61.96 519.046 63.112L536.326 101.896L553.606 63.208ZM603.517 99.016C604.093 99.016 604.573 99.272 604.957 99.784C605.405 100.232 605.629 100.776 605.629 101.416C605.629 102.824 604.541 104.2 602.365 105.544C597.757 108.296 592.893 109.672 587.773 109.672C580.669 109.672 575.069 107.528 570.973 103.24C566.877 98.952 564.829 93.064 564.829 85.576C564.829 80.776 565.725 76.552 567.517 72.904C569.373 69.192 571.933 66.344 575.197 64.36C578.525 62.312 582.333 61.288 586.621 61.288C592.637 61.288 597.373 63.24 600.829 67.144C604.349 70.984 606.109 76.296 606.109 83.08C606.109 84.232 605.853 85.096 605.341 85.672C604.829 86.184 603.997 86.44 602.845 86.44H570.877C571.069 92.328 572.605 96.808 575.485 99.88C578.365 102.952 582.429 104.488 587.677 104.488C590.429 104.488 592.733 104.136 594.589 103.432C596.445 102.664 598.429 101.672 600.541 100.456C601.949 99.496 602.941 99.016 603.517 99.016ZM586.621 66.088C582.141 66.088 578.557 67.496 575.869 70.312C573.181 73.128 571.581 77.064 571.069 82.12H600.733C600.605 77 599.325 73.064 596.893 70.312C594.461 67.496 591.037 66.088 586.621 66.088ZM640.032 61.48C641.248 61.416 642.112 61.576 642.624 61.96C643.136 62.344 643.392 62.984 643.392 63.88C643.392 65.48 642.432 66.376 640.512 66.568L637.632 66.856C633.088 67.304 629.696 68.936 627.456 71.752C625.28 74.568 624.192 77.864 624.192 81.64V106.504C624.192 107.464 623.936 108.2 623.424 108.712C622.912 109.224 622.208 109.48 621.312 109.48C620.416 109.48 619.68 109.224 619.104 108.712C618.592 108.2 618.336 107.464 618.336 106.504V64.456C618.336 63.496 618.592 62.76 619.104 62.248C619.68 61.736 620.416 61.48 621.312 61.48C622.144 61.48 622.816 61.736 623.328 62.248C623.84 62.76 624.096 63.464 624.096 64.36V70.6C626.72 65.096 631.584 62.088 638.688 61.576L640.032 61.48Z" fill="white"/>
</svg>
