<svg width="551" height="491" viewBox="0 0 551 491" fill="none" xmlns="http://www.w3.org/2000/svg">
<path d="M403.953 362.859C403.953 294.515 350.39 238.681 282.953 235.047L282.953 254.08C339.89 257.689 384.953 305.011 384.953 362.859C384.953 423.058 336.152 471.859 275.953 471.859C215.754 471.859 166.953 423.058 166.953 362.859C166.953 305.69 210.964 258.801 266.953 254.225L266.953 235.17C200.46 239.789 147.953 295.192 147.953 362.859C147.953 433.551 205.26 490.859 275.953 490.859C346.645 490.859 403.953 433.551 403.953 362.859Z" fill="#83C934"/>
<path d="M330.019 46.035C270.832 80.2069 249.26 154.511 279.831 214.73L296.314 205.214C270.971 154.1 289.422 91.4133 339.519 62.4895C391.653 32.39 458.317 50.2524 488.416 102.386C518.516 154.52 500.653 221.183 448.519 251.283C399.01 279.867 336.397 265.197 304.44 218.997L287.938 228.525C325.184 283.8 399.418 301.571 458.019 267.737C519.241 232.391 540.217 154.108 504.871 92.8862C469.524 31.6648 391.241 10.6888 330.019 46.035Z" fill="#C9348E"/>
<path d="M92.8863 267.738C152.074 301.909 227.208 283.439 264.075 226.854L247.592 217.338C215.998 264.842 152.484 280.207 102.386 251.283C50.2524 221.184 32.39 154.52 62.4895 102.386C92.589 50.2524 159.252 32.39 211.386 62.4895C260.896 91.0738 279.497 152.633 255.466 203.409L271.968 212.936C301.214 153.042 279.487 79.8684 220.886 46.0351C159.665 10.6888 81.3812 31.6649 46.035 92.8863C10.6888 154.108 31.6648 232.391 92.8863 267.738Z" fill="#348EC9"/>
</svg>
